\relax 
\providecommand\hyper@newdestlabel[2]{}
\providecommand\HyperFirstAtBeginDocument{\AtBeginDocument}
\HyperFirstAtBeginDocument{\ifx\hyper@anchor\@undefined
\global\let\oldcontentsline\contentsline
\gdef\contentsline#1#2#3#4{\oldcontentsline{#1}{#2}{#3}}
\global\let\oldnewlabel\newlabel
\gdef\newlabel#1#2{\newlabelxx{#1}#2}
\gdef\newlabelxx#1#2#3#4#5#6{\oldnewlabel{#1}{{#2}{#3}}}
\AtEndDocument{\ifx\hyper@anchor\@undefined
\let\contentsline\oldcontentsline
\let\newlabel\oldnewlabel
\fi}
\fi}
\global\let\hyper@last\relax 
\gdef\HyperFirstAtBeginDocument#1{#1}
\providecommand\HyField@AuxAddToFields[1]{}
\providecommand\HyField@AuxAddToCoFields[2]{}
\catcode `.\active 
\catcode`\.=12
\catcode `"\active 
\catcode `<\active 
\catcode `>\active 
\es@quoting
\@writefile{toc}{\beamer@endinputifotherversion {3.36pt}}
\@writefile{nav}{\beamer@endinputifotherversion {3.36pt}}
\select@language{spanish}
\@writefile{toc}{\select@language{spanish}}
\@writefile{lof}{\select@language{spanish}}
\@writefile{lot}{\select@language{spanish}}
\@writefile{nav}{\headcommand {\slideentry {0}{0}{1}{1/1}{}{0}}}
\@writefile{nav}{\headcommand {\beamer@framepages {1}{1}}}
\@writefile{nav}{\headcommand {\slideentry {0}{0}{2}{2/2}{}{0}}}
\@writefile{nav}{\headcommand {\beamer@framepages {2}{2}}}
\@writefile{toc}{\beamer@sectionintoc {1}{Introducci\IeC {\'o}n}{3}{0}{1}}
\@writefile{nav}{\headcommand {\sectionentry {1}{Introducci\IeC {\'o}n}{3}{Introducci\IeC {\'o}n}{0}}}
\@writefile{nav}{\headcommand {\beamer@sectionpages {1}{2}}}
\@writefile{nav}{\headcommand {\beamer@subsectionpages {1}{2}}}
\@writefile{nav}{\headcommand {\slideentry {1}{0}{1}{3/3}{}{0}}}
\@writefile{nav}{\headcommand {\beamer@framepages {3}{3}}}
\@input{Capitulos/Cap1_Prologo.aux}
\@writefile{toc}{\beamer@sectionintoc {2}{Herramientas y Tecnolog\IeC {\'\i }as utilizadas}{6}{0}{2}}
\@writefile{nav}{\headcommand {\sectionentry {2}{Herramientas y Tecnolog\IeC {\'\i }as utilizadas}{6}{Herramientas y Tecnolog\IeC {\'\i }as utilizadas}{0}}}
\@writefile{nav}{\headcommand {\beamer@sectionpages {3}{5}}}
\@writefile{nav}{\headcommand {\beamer@subsectionpages {3}{5}}}
\@writefile{nav}{\headcommand {\slideentry {2}{0}{1}{6/6}{}{0}}}
\@writefile{nav}{\headcommand {\beamer@framepages {6}{6}}}
\@input{Capitulos/Cap2_HerrSoft.aux}
\@writefile{toc}{\beamer@sectionintoc {3}{La aplicaci\IeC {\'o}n \texttt  {ULL Maps{}}}{11}{0}{3}}
\@writefile{nav}{\headcommand {\sectionentry {3}{La aplicaci\IeC {\'o}n \texttt  {ULL Maps{}}}{11}{La aplicaci\IeC {\'o}n \texttt  {ULL Maps{}}}{0}}}
\@writefile{nav}{\headcommand {\beamer@sectionpages {6}{10}}}
\@writefile{nav}{\headcommand {\beamer@subsectionpages {6}{10}}}
\@writefile{nav}{\headcommand {\slideentry {3}{0}{1}{11/11}{}{0}}}
\@writefile{nav}{\headcommand {\beamer@framepages {11}{11}}}
\@input{Capitulos/Cap3_LaApp.aux}
\@writefile{toc}{\beamer@sectionintoc {4}{Desarrollo de \texttt  {ULL Maps{}}}{20}{0}{4}}
\@writefile{nav}{\headcommand {\sectionentry {4}{Desarrollo de \texttt  {ULL Maps{}}}{20}{Desarrollo de \texttt  {ULL Maps{}}}{0}}}
\@writefile{nav}{\headcommand {\beamer@sectionpages {11}{19}}}
\@writefile{nav}{\headcommand {\beamer@subsectionpages {11}{19}}}
\@writefile{nav}{\headcommand {\slideentry {4}{0}{1}{20/20}{}{0}}}
\@writefile{nav}{\headcommand {\beamer@framepages {20}{20}}}
\@input{Capitulos/Cap4_Desarrollo.aux}
\@writefile{toc}{\beamer@sectionintoc {5}{Despliegue}{35}{0}{5}}
\@writefile{nav}{\headcommand {\sectionentry {5}{Despliegue}{35}{Despliegue}{0}}}
\@writefile{nav}{\headcommand {\beamer@sectionpages {20}{34}}}
\@writefile{nav}{\headcommand {\beamer@subsectionpages {20}{34}}}
\@writefile{nav}{\headcommand {\slideentry {5}{0}{1}{35/35}{}{0}}}
\@writefile{nav}{\headcommand {\beamer@framepages {35}{35}}}
\@input{Capitulos/Cap5_Despliegue.aux}
\@writefile{toc}{\beamer@sectionintoc {6}{Presupuesto}{37}{0}{6}}
\@writefile{nav}{\headcommand {\sectionentry {6}{Presupuesto}{37}{Presupuesto}{0}}}
\@writefile{nav}{\headcommand {\beamer@sectionpages {35}{36}}}
\@writefile{nav}{\headcommand {\beamer@subsectionpages {35}{36}}}
\@writefile{nav}{\headcommand {\slideentry {6}{0}{1}{37/37}{}{0}}}
\@writefile{nav}{\headcommand {\beamer@framepages {37}{37}}}
\@input{Capitulos/Cap6_Presupuesto.aux}
\@writefile{toc}{\beamer@sectionintoc {7}{Summary and conclusions}{41}{0}{7}}
\@writefile{nav}{\headcommand {\sectionentry {7}{Summary and conclusions}{41}{Summary and conclusions}{0}}}
\@writefile{nav}{\headcommand {\beamer@sectionpages {37}{40}}}
\@writefile{nav}{\headcommand {\beamer@subsectionpages {37}{40}}}
\@writefile{nav}{\headcommand {\slideentry {7}{0}{1}{41/41}{}{0}}}
\@writefile{nav}{\headcommand {\beamer@framepages {41}{41}}}
\@input{Capitulos/Cap7_Conclusiones.aux}
\@input{Capitulos/Cap8_Final.aux}
\@writefile{nav}{\headcommand {\beamer@partpages {1}{44}}}
\@writefile{nav}{\headcommand {\beamer@subsectionpages {41}{44}}}
\@writefile{nav}{\headcommand {\beamer@sectionpages {41}{44}}}
\@writefile{nav}{\headcommand {\beamer@documentpages {44}}}
\@writefile{nav}{\headcommand {\def \inserttotalframenumber {44}}}
