\relax 
\providecommand\hyper@newdestlabel[2]{}
\@writefile{nav}{\headcommand {\slideentry {6}{0}{2}{38/38}{}{0}}}
\@writefile{nav}{\headcommand {\beamer@framepages {38}{38}}}
\@writefile{nav}{\headcommand {\slideentry {6}{0}{3}{39/39}{}{0}}}
\@writefile{nav}{\headcommand {\beamer@framepages {39}{39}}}
\@writefile{nav}{\headcommand {\slideentry {6}{0}{4}{40/40}{}{0}}}
\@writefile{nav}{\headcommand {\beamer@framepages {40}{40}}}
\@setckpt{Capitulos/Cap6_Presupuesto}{
\setcounter{page}{41}
\setcounter{equation}{0}
\setcounter{enumi}{2}
\setcounter{enumii}{0}
\setcounter{enumiii}{0}
\setcounter{enumiv}{0}
\setcounter{footnote}{0}
\setcounter{mpfootnote}{0}
\setcounter{beamerpauses}{1}
\setcounter{bookmark@seq@number}{6}
\setcounter{lecture}{0}
\setcounter{part}{0}
\setcounter{section}{6}
\setcounter{subsection}{0}
\setcounter{subsubsection}{0}
\setcounter{subsectionslide}{4}
\setcounter{framenumber}{40}
\setcounter{figure}{0}
\setcounter{table}{0}
\setcounter{parentequation}{0}
\setcounter{theorem}{0}
\setcounter{lstnumber}{18}
\setcounter{section@level}{0}
\setcounter{lstlisting}{0}
}
