\relax 
\providecommand\hyper@newdestlabel[2]{}
\citation{URL::AndroidStudio}
\citation{URL::IntelliJIDEA}
\citation{URL::Gradle}
\citation{URL::LaTeX}
\@writefile{toc}{\contentsline {chapter}{\numberline {2}Herramientas y Tecnolog\IeC {\'\i }as}{3}{chapter.2}}
\@writefile{lof}{\addvspace {10\p@ }}
\@writefile{lot}{\addvspace {10\p@ }}
\newlabel{chap:Tecnologias}{{2}{3}{Herramientas y Tecnologías}{chapter.2}{}}
\@writefile{toc}{\contentsline {section}{\numberline {2.1}Herramientas de Desarrollo}{3}{section.2.1}}
\@writefile{toc}{\contentsline {subsection}{\numberline {2.1.1}Android Studio}{3}{subsection.2.1.1}}
\@writefile{brf}{\backcite{URL::AndroidStudio}{{3}{2.1.1}{subsection.2.1.1}}}
\@writefile{brf}{\backcite{URL::IntelliJIDEA}{{3}{2.1.1}{subsection.2.1.1}}}
\@writefile{brf}{\backcite{URL::Gradle}{{3}{2.1.1}{subsection.2.1.1}}}
\citation{URL::Gitlab}
\citation{URL::GoogleMaps}
\@writefile{lof}{\contentsline {figure}{\numberline {2.1}{\ignorespaces Android Studio, un IDE flexible e intuitivo.\relax }}{4}{figure.caption.4}}
\providecommand*\caption@xref[2]{\@setref\relax\@undefined{#1}}
\newlabel{fig:androidstudio}{{2.1}{4}{Android Studio, un IDE flexible e intuitivo.\relax }{figure.caption.4}{}}
\@writefile{toc}{\contentsline {subsection}{\numberline {2.1.2}LaTeX}{4}{subsection.2.1.2}}
\@writefile{brf}{\backcite{URL::LaTeX}{{4}{2.1.2}{subsection.2.1.2}}}
\@writefile{toc}{\contentsline {subsection}{\numberline {2.1.3}GitLab}{4}{subsection.2.1.3}}
\@writefile{brf}{\backcite{URL::Gitlab}{{4}{2.1.3}{subsection.2.1.3}}}
\@writefile{toc}{\contentsline {section}{\numberline {2.2}APIs de Google}{4}{section.2.2}}
\citation{URL::GoogleSheet}
\@writefile{toc}{\contentsline {subsection}{\numberline {2.2.1}Google Maps}{5}{subsection.2.2.1}}
\@writefile{brf}{\backcite{URL::GoogleMaps}{{5}{2.2.1}{subsection.2.2.1}}}
\@writefile{toc}{\contentsline {subsection}{\numberline {2.2.2}Google Sheet}{5}{subsection.2.2.2}}
\@writefile{brf}{\backcite{URL::GoogleSheet}{{5}{2.2.2}{subsection.2.2.2}}}
\@writefile{lof}{\contentsline {figure}{\numberline {2.2}{\ignorespaces GoogleMaps.\relax }}{6}{figure.caption.5}}
\newlabel{fig:googlemaps}{{2.2}{6}{GoogleMaps.\relax }{figure.caption.5}{}}
\newlabel{fig:googlesheet}{{2.3a}{6}{Subfigure 2 2.3a}{subfigure.2.3.1}{}}
\newlabel{sub@fig:googlesheet}{{(a)}{a}{Subfigure 2 2.3a\relax }{subfigure.2.3.1}{}}
\newlabel{fig:customsheet}{{2.3b}{6}{Subfigure 2 2.3b}{subfigure.2.3.2}{}}
\newlabel{sub@fig:customsheet}{{(b)}{b}{Subfigure 2 2.3b\relax }{subfigure.2.3.2}{}}
\@writefile{lof}{\contentsline {figure}{\numberline {2.3}{\ignorespaces Google Sheets\relax }}{6}{figure.caption.6}}
\@writefile{lof}{\contentsline {subfigure}{\numberline{(a)}{\ignorespaces {Hoja de c\IeC {\'a}lculo}}}{6}{subfigure.3.1}}
\@writefile{lof}{\contentsline {subfigure}{\numberline{(b)}{\ignorespaces {Funci\IeC {\'o}n personalizada}}}{6}{subfigure.3.2}}
\@setckpt{Cap2_Technology}{
\setcounter{page}{8}
\setcounter{equation}{0}
\setcounter{enumi}{0}
\setcounter{enumii}{0}
\setcounter{enumiii}{0}
\setcounter{enumiv}{0}
\setcounter{footnote}{0}
\setcounter{mpfootnote}{0}
\setcounter{part}{0}
\setcounter{chapter}{2}
\setcounter{section}{2}
\setcounter{subsection}{2}
\setcounter{subsubsection}{0}
\setcounter{paragraph}{0}
\setcounter{subparagraph}{0}
\setcounter{figure}{3}
\setcounter{table}{0}
\setcounter{ContinuedFloat}{0}
\setcounter{KVtest}{0}
\setcounter{subfigure}{0}
\setcounter{subfigure@save}{2}
\setcounter{lofdepth}{1}
\setcounter{subtable}{0}
\setcounter{subtable@save}{0}
\setcounter{lotdepth}{1}
\setcounter{float@type}{8}
\setcounter{FBl@b}{0}
\setcounter{FRobj}{-2}
\setcounter{FRsobj}{0}
\setcounter{FBcnt}{0}
\setcounter{ALC@line}{0}
\setcounter{ALC@rem}{0}
\setcounter{ALC@depth}{0}
\setcounter{Item}{0}
\setcounter{Hfootnote}{0}
\setcounter{bookmark@seq@number}{10}
\setcounter{lstnumber}{1}
\setcounter{section@level}{2}
\setcounter{lstlisting}{0}
}
