\relax 
\providecommand\hyper@newdestlabel[2]{}
\@writefile{toc}{\contentsline {chapter}{\numberline {3}Aplicaci\IeC {\'o}n ULL-Maps}{8}{chapter.3}}
\@writefile{lof}{\addvspace {10\p@ }}
\@writefile{lot}{\addvspace {10\p@ }}
\newlabel{chap:UllMaps}{{3}{8}{Aplicación ULL-Maps}{chapter.3}{}}
\@writefile{toc}{\contentsline {section}{\numberline {3.1}Especificaci\IeC {\'o}n de requisitos}{8}{section.3.1}}
\newlabel{sec:espReq}{{3.1}{8}{Especificación de requisitos}{section.3.1}{}}
\@writefile{toc}{\contentsline {subsection}{\numberline {3.1.1}Explicaci\IeC {\'o}n detallada}{9}{subsection.3.1.1}}
\@writefile{toc}{\contentsline {section}{\numberline {3.2}Ventanas de la aplicaci\IeC {\'o}n}{11}{section.3.2}}
\@writefile{lof}{\contentsline {figure}{\numberline {3.1}{\ignorespaces Ventana principal de la app \texttt  {ULL-Maps}{}{}.\relax }}{11}{figure.caption.7}}
\newlabel{fig:ventanainicial}{{3.1}{11}{Ventana principal de la app \ULLMaps {}.\relax }{figure.caption.7}{}}
\newlabel{fig:mapmarcadores}{{3.2a}{12}{Subfigure 3 3.2a}{subfigure.3.2.1}{}}
\newlabel{sub@fig:mapmarcadores}{{(a)}{a}{Subfigure 3 3.2a\relax }{subfigure.3.2.1}{}}
\newlabel{fig:mapiconos}{{3.2b}{12}{Subfigure 3 3.2b}{subfigure.3.2.2}{}}
\newlabel{sub@fig:mapiconos}{{(b)}{b}{Subfigure 3 3.2b\relax }{subfigure.3.2.2}{}}
\newlabel{fig:mappoligonos}{{3.2c}{12}{Subfigure 3 3.2c}{subfigure.3.2.3}{}}
\newlabel{sub@fig:mappoligonos}{{(c)}{c}{Subfigure 3 3.2c\relax }{subfigure.3.2.3}{}}
\@writefile{lof}{\contentsline {figure}{\numberline {3.2}{\ignorespaces Tipos de mapeado\relax }}{12}{figure.caption.8}}
\@writefile{lof}{\contentsline {subfigure}{\numberline{(a)}{\ignorespaces {Marcadores}}}{12}{subfigure.2.1}}
\@writefile{lof}{\contentsline {subfigure}{\numberline{(b)}{\ignorespaces {Iconos}}}{12}{subfigure.2.2}}
\@writefile{lof}{\contentsline {subfigure}{\numberline{(c)}{\ignorespaces {Pol\IeC {\'\i }gonos}}}{12}{subfigure.2.3}}
\newlabel{fig:infwinmap}{{3.3a}{13}{Subfigure 3 3.3a}{subfigure.3.3.1}{}}
\newlabel{sub@fig:infwinmap}{{(a)}{a}{Subfigure 3 3.3a\relax }{subfigure.3.3.1}{}}
\newlabel{fig:fullinfo}{{3.3b}{13}{Subfigure 3 3.3b}{subfigure.3.3.2}{}}
\newlabel{sub@fig:fullinfo}{{(b)}{b}{Subfigure 3 3.3b\relax }{subfigure.3.3.2}{}}
\@writefile{lof}{\contentsline {figure}{\numberline {3.3}{\ignorespaces Formas de mostrar informaci\IeC {\'o}n en la app.\relax }}{13}{figure.caption.9}}
\@writefile{lof}{\contentsline {subfigure}{\numberline{(a)}{\ignorespaces {\textit {InfoWindow} para el mapa con pol\IeC {\'\i }gonos.}}}{13}{subfigure.3.1}}
\@writefile{lof}{\contentsline {subfigure}{\numberline{(b)}{\ignorespaces {Ventana de informaci\IeC {\'o}n detallada.}}}{13}{subfigure.3.2}}
\@setckpt{Cap3_ULLMaps}{
\setcounter{page}{14}
\setcounter{equation}{0}
\setcounter{enumi}{0}
\setcounter{enumii}{0}
\setcounter{enumiii}{0}
\setcounter{enumiv}{0}
\setcounter{footnote}{0}
\setcounter{mpfootnote}{0}
\setcounter{part}{0}
\setcounter{chapter}{3}
\setcounter{section}{2}
\setcounter{subsection}{0}
\setcounter{subsubsection}{0}
\setcounter{paragraph}{0}
\setcounter{subparagraph}{0}
\setcounter{figure}{3}
\setcounter{table}{0}
\setcounter{ContinuedFloat}{0}
\setcounter{KVtest}{0}
\setcounter{subfigure}{0}
\setcounter{subfigure@save}{2}
\setcounter{lofdepth}{1}
\setcounter{subtable}{0}
\setcounter{subtable@save}{0}
\setcounter{lotdepth}{1}
\setcounter{float@type}{8}
\setcounter{FBl@b}{0}
\setcounter{FRobj}{-7}
\setcounter{FRsobj}{0}
\setcounter{FBcnt}{0}
\setcounter{ALC@line}{0}
\setcounter{ALC@rem}{0}
\setcounter{ALC@depth}{0}
\setcounter{Item}{0}
\setcounter{Hfootnote}{0}
\setcounter{bookmark@seq@number}{14}
\setcounter{lstnumber}{1}
\setcounter{section@level}{1}
\setcounter{lstlisting}{0}
}
