\relax 
\providecommand\hyper@newdestlabel[2]{}
\citation{URL::AndroidStudio}
\citation{URL::GoogleDeveloperConsole}
\@writefile{toc}{\contentsline {chapter}{\numberline {4}Configuraci\IeC {\'o}n inicial y la informaci\IeC {\'o}n de la app}{14}{chapter.4}}
\@writefile{lof}{\addvspace {10\p@ }}
\@writefile{lot}{\addvspace {10\p@ }}
\newlabel{chap:LaAplicacion}{{4}{14}{Configuración inicial y la información de la app}{chapter.4}{}}
\@writefile{toc}{\contentsline {section}{\numberline {4.1}Primeros pasos}{14}{section.4.1}}
\@writefile{brf}{\backcite{URL::AndroidStudio}{{14}{4.1}{section.4.1}}}
\@writefile{lof}{\contentsline {figure}{\numberline {4.1}{\ignorespaces Selecci\IeC {\'o}n de Activity inicial.\relax }}{14}{figure.caption.10}}
\newlabel{fig:GoogleMapsActivity}{{4.1}{14}{Selección de Activity inicial.\relax }{figure.caption.10}{}}
\citation{URL::GoogleMaps}
\citation{URL::GoogleSheet}
\citation{URL::GoogleMaps}
\@writefile{brf}{\backcite{URL::GoogleDeveloperConsole}{{15}{4.1}{figure.caption.10}}}
\@writefile{brf}{\backcite{URL::GoogleMaps}{{15}{4.1}{figure.caption.10}}}
\@writefile{brf}{\backcite{URL::GoogleSheet}{{15}{4.1}{figure.caption.10}}}
\@writefile{toc}{\contentsline {section}{\numberline {4.2}La hoja de c\IeC {\'a}lculo}{15}{section.4.2}}
\@writefile{brf}{\backcite{URL::GoogleMaps}{{15}{4.2}{section.4.2}}}
\@setckpt{Cap4_ConfigurationAPP}{
\setcounter{page}{18}
\setcounter{equation}{0}
\setcounter{enumi}{9}
\setcounter{enumii}{0}
\setcounter{enumiii}{0}
\setcounter{enumiv}{0}
\setcounter{footnote}{0}
\setcounter{mpfootnote}{0}
\setcounter{part}{0}
\setcounter{chapter}{4}
\setcounter{section}{2}
\setcounter{subsection}{0}
\setcounter{subsubsection}{0}
\setcounter{paragraph}{0}
\setcounter{subparagraph}{0}
\setcounter{figure}{1}
\setcounter{table}{0}
\setcounter{ContinuedFloat}{0}
\setcounter{KVtest}{0}
\setcounter{subfigure}{0}
\setcounter{subfigure@save}{2}
\setcounter{lofdepth}{1}
\setcounter{subtable}{0}
\setcounter{subtable@save}{0}
\setcounter{lotdepth}{1}
\setcounter{float@type}{8}
\setcounter{FBl@b}{0}
\setcounter{FRobj}{-7}
\setcounter{FRsobj}{0}
\setcounter{FBcnt}{0}
\setcounter{ALC@line}{0}
\setcounter{ALC@rem}{0}
\setcounter{ALC@depth}{0}
\setcounter{Item}{9}
\setcounter{Hfootnote}{0}
\setcounter{bookmark@seq@number}{17}
\setcounter{lstnumber}{2}
\setcounter{section@level}{1}
\setcounter{lstlisting}{0}
}
