\relax 
\providecommand\hyper@newdestlabel[2]{}
\citation{URL:HojaDeCalculo}
\@writefile{toc}{\contentsline {chapter}{\numberline {5}Ventana inicial y manejo de la informaci\IeC {\'o}n}{18}{chapter.5}}
\@writefile{lof}{\addvspace {10\p@ }}
\@writefile{lot}{\addvspace {10\p@ }}
\newlabel{chap:LaAplicacion2}{{5}{18}{Ventana inicial y manejo de la información}{chapter.5}{}}
\@writefile{toc}{\contentsline {section}{\numberline {5.1}La ventana inicial}{18}{section.5.1}}
\@writefile{brf}{\backcite{URL:HojaDeCalculo}{{18}{5.1}{section.5.1}}}
\@writefile{toc}{\contentsline {subsection}{\numberline {5.1.1}El layout}{18}{subsection.5.1.1}}
\newlabel{xml:mainxml}{{5.1}{19}{Fichero XML que define de la ventana inicial de la aplicación}{lstlisting.5.1}{}}
\@writefile{lol}{\contentsline {lstlisting}{\numberline {5.1}Fichero XML que define de la ventana inicial de la aplicaci\IeC {\'o}n.}{19}{lstlisting.5.1}}
\citation{URL::AndroidStudio}
\@writefile{toc}{\contentsline {subsection}{\numberline {5.1.2}Obtenci\IeC {\'o}n y entrega de datos}{20}{subsection.5.1.2}}
\newlabel{ssec:mainwindata}{{5.1.2}{20}{Obtención y entrega de datos}{subsection.5.1.2}{}}
\@writefile{brf}{\backcite{URL::AndroidStudio}{{20}{5.1.2}{subsection.5.1.2}}}
\@writefile{toc}{\contentsline {subsection}{\numberline {5.1.3}Selecci\IeC {\'o}n de idioma}{20}{subsection.5.1.3}}
\newlabel{ssec:selectlang}{{5.1.3}{20}{Selección de idioma}{subsection.5.1.3}{}}
\newlabel{code:SheetRequest}{{5.2}{21}{Esta clase contiene el código necesario para solicitar la información a la nube}{lstlisting.5.2}{}}
\@writefile{lol}{\contentsline {lstlisting}{\numberline {5.2}Esta clase contiene el c\IeC {\'o}digo necesario para solicitar la informaci\IeC {\'o}n a la nube.}{21}{lstlisting.5.2}}
\newlabel{code:InitialButtons}{{5.3}{22}{Estos métodos se encargan de cambiar de actividad y comunicar los datos de la hoja de cálculo}{lstlisting.5.3}{}}
\@writefile{lol}{\contentsline {lstlisting}{\numberline {5.3}Estos m\IeC {\'e}todos se encargan de cambiar de actividad y comunicar los datos de la hoja de c\IeC {\'a}lculo.}{22}{lstlisting.5.3}}
\newlabel{code:changeLang}{{5.4}{23}{Método encargado de cambiar y actualizar el idioma de la app}{lstlisting.5.4}{}}
\@writefile{lol}{\contentsline {lstlisting}{\numberline {5.4}M\IeC {\'e}todo encargado de cambiar y actualizar el idioma de la app.}{23}{lstlisting.5.4}}
\@setckpt{Cap5_VentanaInicial}{
\setcounter{page}{24}
\setcounter{equation}{0}
\setcounter{enumi}{9}
\setcounter{enumii}{0}
\setcounter{enumiii}{0}
\setcounter{enumiv}{0}
\setcounter{footnote}{0}
\setcounter{mpfootnote}{0}
\setcounter{part}{0}
\setcounter{chapter}{5}
\setcounter{section}{1}
\setcounter{subsection}{3}
\setcounter{subsubsection}{0}
\setcounter{paragraph}{0}
\setcounter{subparagraph}{0}
\setcounter{figure}{0}
\setcounter{table}{0}
\setcounter{ContinuedFloat}{0}
\setcounter{KVtest}{0}
\setcounter{subfigure}{0}
\setcounter{subfigure@save}{2}
\setcounter{lofdepth}{1}
\setcounter{subtable}{0}
\setcounter{subtable@save}{0}
\setcounter{lotdepth}{1}
\setcounter{float@type}{8}
\setcounter{FBl@b}{0}
\setcounter{FRobj}{-7}
\setcounter{FRsobj}{0}
\setcounter{FBcnt}{0}
\setcounter{ALC@line}{0}
\setcounter{ALC@rem}{0}
\setcounter{ALC@depth}{0}
\setcounter{Item}{9}
\setcounter{Hfootnote}{0}
\setcounter{bookmark@seq@number}{22}
\setcounter{lstnumber}{12}
\setcounter{section@level}{2}
\setcounter{lstlisting}{4}
}
