\relax 
\providecommand\hyper@newdestlabel[2]{}
\@writefile{toc}{\contentsline {chapter}{\numberline {6}Configuraci\IeC {\'o}n com\IeC {\'u}n de los mapas}{24}{chapter.6}}
\@writefile{lof}{\addvspace {10\p@ }}
\@writefile{lot}{\addvspace {10\p@ }}
\newlabel{chap:LaAplicacion3}{{6}{24}{Configuración común de los mapas}{chapter.6}{}}
\@writefile{toc}{\contentsline {section}{\numberline {6.1}InfoWindow personalizadas}{24}{section.6.1}}
\newlabel{xml:InfoWindow}{{6.1}{25}{Archivo XML que contiene la configuración de las ventanas de información}{lstlisting.6.1}{}}
\@writefile{lol}{\contentsline {lstlisting}{\numberline {6.1}Archivo XML que contiene la configuraci\IeC {\'o}n de las ventanas de informaci\IeC {\'o}n.}{25}{lstlisting.6.1}}
\newlabel{code:InfoWindow}{{6.2}{26}{Método encargado de cambiar la ventana de información por defecto por una personalizada}{lstlisting.6.2}{}}
\@writefile{lol}{\contentsline {lstlisting}{\numberline {6.2}M\IeC {\'e}todo encargado de cambiar la ventana de informaci\IeC {\'o}n por defecto por una personalizada.}{26}{lstlisting.6.2}}
\citation{URL:Picasso}
\citation{URL::AndroidStudio}
\newlabel{code:InfoWindowRefresher}{{6.3}{27}{Método que maneja el callback de la carga de imágenes}{lstlisting.6.3}{}}
\@writefile{lol}{\contentsline {lstlisting}{\numberline {6.3}M\IeC {\'e}todo que maneja el callback de la carga de im\IeC {\'a}genes.}{27}{lstlisting.6.3}}
\@writefile{brf}{\backcite{URL:Picasso}{{27}{6.1}{lstnumber.6.2.55}}}
\@writefile{toc}{\contentsline {section}{\numberline {6.2}Dise\IeC {\~n}o del men\IeC {\'u} superior}{27}{section.6.2}}
\newlabel{sec:menu_sup}{{6.2}{27}{Diseño del menú superior}{section.6.2}{}}
\newlabel{xml:mapa}{{6.4}{28}{XML encargado del diseño de la ventana mapa}{lstlisting.6.4}{}}
\@writefile{lol}{\contentsline {lstlisting}{\numberline {6.4}XML encargado del dise\IeC {\~n}o de la ventana mapa.}{28}{lstlisting.6.4}}
\@writefile{brf}{\backcite{URL::AndroidStudio}{{28}{6.2}{section.6.2}}}
\newlabel{xml:menu}{{6.5}{29}{XML encargado del diseño del menú superior que tienen las ventanas de mapas de la app}{lstlisting.6.5}{}}
\@writefile{lol}{\contentsline {lstlisting}{\numberline {6.5}XML encargado del dise\IeC {\~n}o del men\IeC {\'u} superior que tienen las ventanas de mapas de la app.}{29}{lstlisting.6.5}}
\newlabel{code:CustomMenu}{{6.6}{31}{Código en Java que se encarga de configurar el menú superior de la aplicación \ULLMaps {}}{lstlisting.6.6}{}}
\@writefile{lol}{\contentsline {lstlisting}{\numberline {6.6}C\IeC {\'o}digo en Java que se encarga de configurar el men\IeC {\'u} superior de la aplicaci\IeC {\'o}n \texttt  {ULL-Maps}{}{}.}{31}{lstlisting.6.6}}
\@writefile{toc}{\contentsline {section}{\numberline {6.3}Control de las opciones del men\IeC {\'u} superior}{32}{section.6.3}}
\citation{URL::GoogleMaps}
\@writefile{toc}{\contentsline {section}{\numberline {6.4}MarkersData}{33}{section.6.4}}
\@writefile{brf}{\backcite{URL::GoogleMaps}{{33}{6.4}{section.6.4}}}
\newlabel{code:MarkersData}{{6.8}{33}{Clase encargada de gestionar la información adicional de cada marcador}{lstlisting.6.8}{}}
\@writefile{lol}{\contentsline {lstlisting}{\numberline {6.8}Clase encargada de gestionar la informaci\IeC {\'o}n adicional de cada marcador.}{33}{lstlisting.6.8}}
\newlabel{code:OptionWork}{{6.7}{34}{Código en Java que maneja las acciones a realizar según que opción del menú superior se seleccione}{lstlisting.6.7}{}}
\@writefile{lol}{\contentsline {lstlisting}{\numberline {6.7}C\IeC {\'o}digo en Java que maneja las acciones a realizar seg\IeC {\'u}n que opci\IeC {\'o}n del men\IeC {\'u} superior se seleccione}{34}{lstlisting.6.7}}
\@setckpt{Cap6_CommonConfig}{
\setcounter{page}{35}
\setcounter{equation}{0}
\setcounter{enumi}{4}
\setcounter{enumii}{0}
\setcounter{enumiii}{0}
\setcounter{enumiv}{0}
\setcounter{footnote}{0}
\setcounter{mpfootnote}{0}
\setcounter{part}{0}
\setcounter{chapter}{6}
\setcounter{section}{4}
\setcounter{subsection}{0}
\setcounter{subsubsection}{0}
\setcounter{paragraph}{0}
\setcounter{subparagraph}{0}
\setcounter{figure}{0}
\setcounter{table}{0}
\setcounter{ContinuedFloat}{0}
\setcounter{KVtest}{0}
\setcounter{subfigure}{0}
\setcounter{subfigure@save}{2}
\setcounter{lofdepth}{1}
\setcounter{subtable}{0}
\setcounter{subtable@save}{0}
\setcounter{lotdepth}{1}
\setcounter{float@type}{8}
\setcounter{FBl@b}{0}
\setcounter{FRobj}{-7}
\setcounter{FRsobj}{0}
\setcounter{FBcnt}{0}
\setcounter{ALC@line}{0}
\setcounter{ALC@rem}{0}
\setcounter{ALC@depth}{0}
\setcounter{Item}{13}
\setcounter{Hfootnote}{0}
\setcounter{bookmark@seq@number}{27}
\setcounter{lstnumber}{20}
\setcounter{section@level}{1}
\setcounter{lstlisting}{8}
}
