\relax 
\providecommand\hyper@newdestlabel[2]{}
\@writefile{toc}{\contentsline {chapter}{\numberline {7}Ventana \textit  {FullInfo} y los mapas}{35}{chapter.7}}
\@writefile{lof}{\addvspace {10\p@ }}
\@writefile{lot}{\addvspace {10\p@ }}
\newlabel{chap:LaAplicacion4}{{7}{35}{Ventana \textit {FullInfo} y los mapas}{chapter.7}{}}
\@writefile{toc}{\contentsline {section}{\numberline {7.1}Ventana \textit  {FullInfo}}{35}{section.7.1}}
\newlabel{xml:fullinfo}{{7.1}{36}{Este es el fichero XML encargado de mostrar toda la información de un edificio}{lstlisting.7.1}{}}
\@writefile{lol}{\contentsline {lstlisting}{\numberline {7.1}Este es el fichero XML encargado de mostrar toda la informaci\IeC {\'o}n de un edificio.}{36}{lstlisting.7.1}}
\newlabel{xml:fullinfmenu}{{7.2}{37}{Fichero XML del menú de la actividad que muestra la información completa de un edificio}{lstlisting.7.2}{}}
\@writefile{lol}{\contentsline {lstlisting}{\numberline {7.2}Fichero XML del men\IeC {\'u} de la actividad que muestra la informaci\IeC {\'o}n completa de un edificio.}{37}{lstlisting.7.2}}
\newlabel{code:setInfClick}{{7.3}{37}{Creación de un listener que recoja la selección en \textit {InfoWindows} y la acción a realizar al producirse el evento}{lstlisting.7.3}{}}
\@writefile{lol}{\contentsline {lstlisting}{\numberline {7.3}Creaci\IeC {\'o}n de un listener que recoja la selecci\IeC {\'o}n en \textit  {InfoWindows} y la acci\IeC {\'o}n a realizar al producirse el evento.}{37}{lstlisting.7.3}}
\newlabel{code:createFullInf}{{7.4}{38}{Inicialización de la ventana \textit {FullInfo} de la app}{lstlisting.7.4}{}}
\@writefile{lol}{\contentsline {lstlisting}{\numberline {7.4}Inicializaci\IeC {\'o}n de la ventana \textit  {FullInfo} de la app.}{38}{lstlisting.7.4}}
\newlabel{code:menueventFullInf}{{7.5}{39}{Manejo de los eventos para las opciones del menú de la ventana \textit {FullInfo}}{lstlisting.7.5}{}}
\@writefile{lol}{\contentsline {lstlisting}{\numberline {7.5}Manejo de los eventos para las opciones del men\IeC {\'u} de la ventana \textit  {FullInfo}.}{39}{lstlisting.7.5}}
\@writefile{toc}{\contentsline {section}{\numberline {7.2}Mapas}{39}{section.7.2}}
\newlabel{code:optioncreateFI}{{7.6}{40}{Creación de las subopciones del menú para la ventana \textit {FullInfo} de la app}{lstlisting.7.6}{}}
\@writefile{lol}{\contentsline {lstlisting}{\numberline {7.6}Creaci\IeC {\'o}n de las subopciones del men\IeC {\'u} para la ventana \textit  {FullInfo} de la app.}{40}{lstlisting.7.6}}
\@writefile{toc}{\contentsline {subsection}{\numberline {7.2.1}Mapa con marcadores}{40}{subsection.7.2.1}}
\newlabel{code:onCreate}{{7.7}{41}{Código en JAVA que se ejecuta a la hora de crear una actividad de la aplicación que tenga un mapa}{lstlisting.7.7}{}}
\@writefile{lol}{\contentsline {lstlisting}{\numberline {7.7}C\IeC {\'o}digo en JAVA que se ejecuta a la hora de crear una actividad de la aplicaci\IeC {\'o}n que tenga un mapa.}{41}{lstlisting.7.7}}
\@writefile{toc}{\contentsline {subsection}{\numberline {7.2.2}Mapa con iconos}{41}{subsection.7.2.2}}
\newlabel{code:markerListener}{{7.8}{42}{Código encargado de actualizar el menú al seleccionar un marcador}{lstlisting.7.8}{}}
\@writefile{lol}{\contentsline {lstlisting}{\numberline {7.8}C\IeC {\'o}digo encargado de actualizar el men\IeC {\'u} al seleccionar un marcador.}{42}{lstlisting.7.8}}
\newlabel{code:loadMarkers}{{7.9}{42}{Método encargado de cargar los marcadores}{lstlisting.7.9}{}}
\@writefile{lol}{\contentsline {lstlisting}{\numberline {7.9}M\IeC {\'e}todo encargado de cargar los marcadores.}{42}{lstlisting.7.9}}
\newlabel{code:createMarker}{{7.10}{43}{Método encargado de crear cada marcador, y de almacenar los valores que necesita}{lstlisting.7.10}{}}
\@writefile{lol}{\contentsline {lstlisting}{\numberline {7.10}M\IeC {\'e}todo encargado de crear cada marcador, y de almacenar los valores que necesita.}{43}{lstlisting.7.10}}
\newlabel{code:loadIcons}{{7.11}{44}{Método encargado de cargar los marcadores con iconos}{lstlisting.7.11}{}}
\@writefile{lol}{\contentsline {lstlisting}{\numberline {7.11}M\IeC {\'e}todo encargado de cargar los marcadores con iconos.}{44}{lstlisting.7.11}}
\newlabel{code:createMIcon}{{7.12}{44}{Método encargado de crear cada marcador, y de guardar los valores que necesita}{lstlisting.7.12}{}}
\@writefile{lol}{\contentsline {lstlisting}{\numberline {7.12}M\IeC {\'e}todo encargado de crear cada marcador, y de guardar los valores que necesita.}{44}{lstlisting.7.12}}
\citation{URL::GoogleMaps}
\citation{URL::HojaDeCalculo}
\@writefile{toc}{\contentsline {subsection}{\numberline {7.2.3}Mapa con pol\IeC {\'\i }gonos}{45}{subsection.7.2.3}}
\@writefile{brf}{\backcite{URL::GoogleMaps}{{45}{7.2.3}{subsection.7.2.3}}}
\@writefile{brf}{\backcite{URL::HojaDeCalculo}{{45}{7.2.3}{subsection.7.2.3}}}
\newlabel{code:loadPolygon}{{7.13}{46}{Método encargado de cargar todos los polígonos del mapa}{lstlisting.7.13}{}}
\@writefile{lol}{\contentsline {lstlisting}{\numberline {7.13}M\IeC {\'e}todo encargado de cargar todos los pol\IeC {\'\i }gonos del mapa.}{46}{lstlisting.7.13}}
\newlabel{code:createPolygon}{{7.14}{47}{Método encargado de crear un polígono}{lstlisting.7.14}{}}
\@writefile{lol}{\contentsline {lstlisting}{\numberline {7.14}M\IeC {\'e}todo encargado de crear un pol\IeC {\'\i }gono.}{47}{lstlisting.7.14}}
\newlabel{code:polygonListener}{{7.15}{48}{\textit {Listener} para los polígonos de la app}{lstlisting.7.15}{}}
\@writefile{lol}{\contentsline {lstlisting}{\numberline {7.15}\textit  {Listener} para los pol\IeC {\'\i }gonos de la app.}{48}{lstlisting.7.15}}
\@setckpt{Cap7_Maps}{
\setcounter{page}{49}
\setcounter{equation}{0}
\setcounter{enumi}{4}
\setcounter{enumii}{0}
\setcounter{enumiii}{0}
\setcounter{enumiv}{0}
\setcounter{footnote}{0}
\setcounter{mpfootnote}{0}
\setcounter{part}{0}
\setcounter{chapter}{7}
\setcounter{section}{2}
\setcounter{subsection}{3}
\setcounter{subsubsection}{0}
\setcounter{paragraph}{0}
\setcounter{subparagraph}{0}
\setcounter{figure}{0}
\setcounter{table}{0}
\setcounter{ContinuedFloat}{0}
\setcounter{KVtest}{0}
\setcounter{subfigure}{0}
\setcounter{subfigure@save}{2}
\setcounter{lofdepth}{1}
\setcounter{subtable}{0}
\setcounter{subtable@save}{0}
\setcounter{lotdepth}{1}
\setcounter{float@type}{8}
\setcounter{FBl@b}{0}
\setcounter{FRobj}{-7}
\setcounter{FRsobj}{0}
\setcounter{FBcnt}{0}
\setcounter{ALC@line}{0}
\setcounter{ALC@rem}{0}
\setcounter{ALC@depth}{0}
\setcounter{Item}{19}
\setcounter{Hfootnote}{0}
\setcounter{bookmark@seq@number}{33}
\setcounter{lstnumber}{35}
\setcounter{section@level}{2}
\setcounter{lstlisting}{15}
}
