\relax 
\providecommand\hyper@newdestlabel[2]{}
\citation{URL::GooglePlay}
\citation{URL::UpgGoogleAcc}
\@writefile{toc}{\contentsline {chapter}{\numberline {9}Presupuesto}{51}{chapter.9}}
\@writefile{lof}{\addvspace {10\p@ }}
\@writefile{lot}{\addvspace {10\p@ }}
\newlabel{chap:presupuesto}{{9}{51}{Presupuesto}{chapter.9}{}}
\@writefile{brf}{\backcite{URL::GooglePlay}{{51}{9}{chapter.9}}}
\@writefile{brf}{\backcite{URL::UpgGoogleAcc}{{51}{9}{chapter.9}}}
\@setckpt{Cap9_BudgetEstimations}{
\setcounter{page}{53}
\setcounter{equation}{0}
\setcounter{enumi}{4}
\setcounter{enumii}{0}
\setcounter{enumiii}{0}
\setcounter{enumiv}{0}
\setcounter{footnote}{0}
\setcounter{mpfootnote}{0}
\setcounter{part}{0}
\setcounter{chapter}{9}
\setcounter{section}{0}
\setcounter{subsection}{0}
\setcounter{subsubsection}{0}
\setcounter{paragraph}{0}
\setcounter{subparagraph}{0}
\setcounter{figure}{0}
\setcounter{table}{0}
\setcounter{ContinuedFloat}{0}
\setcounter{KVtest}{0}
\setcounter{subfigure}{0}
\setcounter{subfigure@save}{2}
\setcounter{lofdepth}{1}
\setcounter{subtable}{0}
\setcounter{subtable@save}{0}
\setcounter{lotdepth}{1}
\setcounter{float@type}{8}
\setcounter{FBl@b}{0}
\setcounter{FRobj}{-7}
\setcounter{FRsobj}{0}
\setcounter{FBcnt}{0}
\setcounter{ALC@line}{0}
\setcounter{ALC@rem}{0}
\setcounter{ALC@depth}{0}
\setcounter{Item}{19}
\setcounter{Hfootnote}{0}
\setcounter{bookmark@seq@number}{37}
\setcounter{lstnumber}{35}
\setcounter{section@level}{1}
\setcounter{lstlisting}{0}
}
