\relax 
\providecommand\hyper@newdestlabel[2]{}
\catcode `.\active 
\catcode`\.=12
\catcode `"\active 
\catcode `<\active 
\catcode `>\active 
\es@quoting
\providecommand\HyperFirstAtBeginDocument{\AtBeginDocument}
\HyperFirstAtBeginDocument{\ifx\hyper@anchor\@undefined
\global\let\oldcontentsline\contentsline
\gdef\contentsline#1#2#3#4{\oldcontentsline{#1}{#2}{#3}}
\global\let\oldnewlabel\newlabel
\gdef\newlabel#1#2{\newlabelxx{#1}#2}
\gdef\newlabelxx#1#2#3#4#5#6{\oldnewlabel{#1}{{#2}{#3}}}
\AtEndDocument{\ifx\hyper@anchor\@undefined
\let\contentsline\oldcontentsline
\let\newlabel\oldnewlabel
\fi}
\fi}
\global\let\hyper@last\relax 
\gdef\HyperFirstAtBeginDocument#1{#1}
\providecommand\HyField@AuxAddToFields[1]{}
\providecommand\HyField@AuxAddToCoFields[2]{}
\select@language{spanish}
\@writefile{toc}{\select@language{spanish}}
\@writefile{lof}{\select@language{spanish}}
\@writefile{lot}{\select@language{spanish}}
\@input{Preface.aux}
\@input{Cap1_Goals.aux}
\@input{Cap2_Technology.aux}
\@input{Cap3_ULLMaps.aux}
\@input{Cap4_ConfigurationAPP.aux}
\@input{Cap5_VentanaInicial.aux}
\@input{Cap6_CommonConfig.aux}
\@input{Cap7_Maps.aux}
\@input{Cap8_ConclusionsAndFutureLinesOfWork.aux}
\@input{Cap9_BudgetEstimations.aux}
\bibstyle{bmc_article}
\bibdata{bibliografia}
\bibcite{URL::Android}{1}
\bibcite{URL::Gitlab}{2}
\bibcite{URL::LaTeX}{3}
\bibcite{URL::AndroidStudio}{4}
\bibcite{URL::IntelliJIDEA}{5}
\bibcite{URL::Gradle}{6}
\bibcite{URL::GoogleMaps}{7}
\bibcite{URL::GoogleSheet}{8}
\bibcite{URL::GoogleDeveloperConsole}{9}
\bibcite{URL::HojaDeCalculo}{10}
\bibcite{URL::GooglePlay}{11}
\bibcite{URL::UpgGoogleAcc}{12}
\@writefile{toc}{\contentsline {chapter}{Bibliograf\IeC {\'\i }a}{53}{chapter.9}}
