\relax 
\providecommand\hyper@newdestlabel[2]{}
\@writefile{nav}{\headcommand {\slideentry {4}{0}{2}{21/21}{}{0}}}
\@writefile{nav}{\headcommand {\beamer@framepages {21}{21}}}
\@writefile{nav}{\headcommand {\slideentry {4}{0}{3}{22/22}{}{0}}}
\@writefile{nav}{\headcommand {\beamer@framepages {22}{22}}}
\@writefile{lol}{\contentsline {lstlisting}{Code/getData.java}}
\@writefile{nav}{\headcommand {\slideentry {4}{0}{4}{23/23}{}{0}}}
\@writefile{nav}{\headcommand {\beamer@framepages {23}{23}}}
\@writefile{nav}{\headcommand {\slideentry {4}{0}{5}{24/24}{}{0}}}
\@writefile{nav}{\headcommand {\beamer@framepages {24}{24}}}
\@writefile{lol}{\contentsline {lstlisting}{Code/ChangeLanguage.java}}
\@writefile{nav}{\headcommand {\slideentry {4}{0}{6}{25/25}{}{0}}}
\@writefile{nav}{\headcommand {\beamer@framepages {25}{25}}}
\@writefile{nav}{\headcommand {\slideentry {4}{0}{7}{26/26}{}{0}}}
\@writefile{nav}{\headcommand {\beamer@framepages {26}{26}}}
\@writefile{lol}{\contentsline {lstlisting}{Code/CustomMenu.java}}
\@writefile{nav}{\headcommand {\slideentry {4}{0}{8}{27/27}{}{0}}}
\@writefile{nav}{\headcommand {\beamer@framepages {27}{27}}}
\@writefile{nav}{\headcommand {\slideentry {4}{0}{9}{28/28}{}{0}}}
\@writefile{nav}{\headcommand {\beamer@framepages {28}{28}}}
\@writefile{lol}{\contentsline {lstlisting}{Code/MarkersListener.java}}
\@writefile{nav}{\headcommand {\slideentry {4}{0}{10}{29/29}{}{0}}}
\@writefile{nav}{\headcommand {\beamer@framepages {29}{29}}}
\@writefile{nav}{\headcommand {\slideentry {4}{0}{11}{30/30}{}{0}}}
\@writefile{nav}{\headcommand {\beamer@framepages {30}{30}}}
\@writefile{lol}{\contentsline {lstlisting}{Code/CreateMIcon.java}}
\@writefile{nav}{\headcommand {\slideentry {4}{0}{12}{31/31}{}{0}}}
\@writefile{nav}{\headcommand {\beamer@framepages {31}{31}}}
\@writefile{nav}{\headcommand {\slideentry {4}{0}{13}{32/32}{}{0}}}
\@writefile{nav}{\headcommand {\beamer@framepages {32}{32}}}
\@writefile{lol}{\contentsline {lstlisting}{Code/CreatePolygon.java}}
\@writefile{nav}{\headcommand {\slideentry {4}{0}{14}{33/33}{}{0}}}
\@writefile{nav}{\headcommand {\beamer@framepages {33}{33}}}
\@writefile{lol}{\contentsline {lstlisting}{Code/PolygonListener.java}}
\@writefile{nav}{\headcommand {\slideentry {4}{0}{15}{34/34}{}{0}}}
\@writefile{nav}{\headcommand {\beamer@framepages {34}{34}}}
\@setckpt{Capitulos/Cap4_Desarrollo}{
\setcounter{page}{35}
\setcounter{equation}{0}
\setcounter{enumi}{0}
\setcounter{enumii}{0}
\setcounter{enumiii}{0}
\setcounter{enumiv}{0}
\setcounter{footnote}{0}
\setcounter{mpfootnote}{0}
\setcounter{beamerpauses}{1}
\setcounter{bookmark@seq@number}{4}
\setcounter{lecture}{0}
\setcounter{part}{0}
\setcounter{section}{4}
\setcounter{subsection}{0}
\setcounter{subsubsection}{0}
\setcounter{subsectionslide}{15}
\setcounter{framenumber}{34}
\setcounter{figure}{0}
\setcounter{table}{0}
\setcounter{parentequation}{0}
\setcounter{theorem}{0}
\setcounter{lstnumber}{18}
\setcounter{section@level}{0}
\setcounter{lstlisting}{0}
}
